<?xml version="1.0" encoding="utf-8"?>
<!-- Generator: Adobe Illustrator 16.0.0, SVG Export Plug-In . SVG Version: 6.00 Build 0)  -->
<!DOCTYPE svg PUBLIC "-//W3C//DTD SVG 1.1//EN" "http://www.w3.org/Graphics/SVG/1.1/DTD/svg11.dtd">
<svg version="1.1" id="Layer_1" xmlns="http://www.w3.org/2000/svg" xmlns:xlink="http://www.w3.org/1999/xlink" x="0px" y="0px"
	 width="45.721px" height="52.936px" viewBox="0 0 45.721 52.936" enable-background="new 0 0 45.721 52.936" xml:space="preserve">
<path d="M38.874,16.271c-2.798-3.46-8.467-6.553-13.253-6.553c-13.179,0-15.019,12.516-15.019,16.713
	c0,4.196,1.914,16.639,15.093,16.639c4.933,0,10.381-2.797,13.841-5.963l5.89,7.142c-5.301,5.301-11.559,8.688-19.805,8.688
	C5.964,52.936,0,37.475,0,26.431C0,15.682,5.964,0,25.621,0c8.835,0,14.946,3.829,20.1,9.645L38.874,16.271z"/>
</svg>
