<?xml version="1.0" encoding="utf-8"?>
<!-- Generator: Adobe Illustrator 19.1.0, SVG Export Plug-In . SVG Version: 6.00 Build 0)  -->
<svg version="1.0" id="Layer_1" xmlns="http://www.w3.org/2000/svg" xmlns:xlink="http://www.w3.org/1999/xlink" x="0px" y="0px"
	 viewBox="0 0 74.1 101.5" style="enable-background:new 0 0 74.1 101.5;" xml:space="preserve">
<style type="text/css">
	.st0{fill:#BCBEC0;}
</style>
<polygon class="st0" points="74.1,0 66.1,0 66.1,64.8 16,64.8 40.6,42 35.2,36.1 0,68.8 35.2,101.5 40.6,95.7 16.1,72.8 74.1,72.8 
	"/>
</svg>
