<?xml version="1.0" encoding="utf-8"?>
<!-- Generator: Adobe Illustrator 16.0.0, SVG Export Plug-In . SVG Version: 6.00 Build 0)  -->
<!DOCTYPE svg PUBLIC "-//W3C//DTD SVG 1.1//EN" "http://www.w3.org/Graphics/SVG/1.1/DTD/svg11.dtd">
<svg version="1.1" id="Layer_1" xmlns="http://www.w3.org/2000/svg" xmlns:xlink="http://www.w3.org/1999/xlink" x="0px" y="0px"
	 width="42.334px" height="51.537px" viewBox="0 0 42.334 51.537" enable-background="new 0 0 42.334 51.537" xml:space="preserve">
<path fill="#FF4338" d="M10.455,51.537H0V0h10.455v21.351h21.498V0h10.381v51.537H31.953V30.922H10.455V51.537z"/>
</svg>
